\relax 
\@writefile{toc}{\contentsline {section}{\numberline {0.1}UML design}{1}}
\@writefile{toc}{\contentsline {subsection}{\numberline {0.1.1}Classes}{1}}
\@writefile{toc}{\contentsline {subsection}{\numberline {0.1.2}Use cases}{2}}
\@writefile{toc}{\contentsline {subsubsection}{Get in touch with people in your year}{2}}
\@writefile{toc}{\contentsline {subsubsection}{Vote for committee positions}{2}}
\@writefile{toc}{\contentsline {section}{\numberline {0.2}DTD specification and XML files}{2}}
\@writefile{toc}{\contentsline {subsection}{\numberline {0.2.1}alumni.xml}{2}}
\@writefile{toc}{\contentsline {subsection}{\numberline {0.2.2}classes.xml}{3}}
\@writefile{toc}{\contentsline {subsection}{\numberline {0.2.3}credit\_log.xml}{3}}
\@writefile{toc}{\contentsline {subsection}{\numberline {0.2.4}committee.xml}{4}}
\@writefile{toc}{\contentsline {subsection}{\numberline {0.2.5}timetable.xml}{5}}
\@writefile{toc}{\contentsline {subsection}{\numberline {0.2.6}time.dtd}{6}}
\@writefile{toc}{\contentsline {section}{\numberline {0.3}XQuery queries}{7}}
\@writefile{toc}{\contentsline {subsection}{\numberline {0.3.1}Given an alum id (\$self\_id), return every course taken by the alum}{7}}
\@writefile{toc}{\contentsline {subsection}{\numberline {0.3.2}Given a course code and year, return every alum from the course who is alive and whose email and/or phone number is public}{7}}
\@writefile{toc}{\contentsline {subsection}{\numberline {0.3.3}Show all creditors more than 30 days late}{7}}
\@writefile{toc}{\contentsline {subsection}{\numberline {0.3.4}Show every past term of a certain committee member}{7}}
