


ARM Macro Assembler    Page 1 


    1 00000000                 AREA             AsmTemplate, CODE, READONLY
    2 00000000                 IMPORT           main
    3 00000000         
    4 00000000         ;  Partial sample solution for 7-segment display lab -- 
                       lab 1
    5 00000000         ; (c) Mike Brady, 2011.
    6 00000000         
    7 00000000                 EXPORT           start
    8 00000000         start
    9 00000000         
   10 00000000 E0028008 
                       IO0DIR  EQU              0xE0028008
   11 00000000 E0028004 
                       IO0SET  EQU              0xE0028004
   12 00000000 E002800C 
                       IO0CLR  EQU              0xE002800C
   13 00000000         
   14 00000000         ; The follow equates describe how each each segment is c
                       onnected to a pin on port P0.
   15 00000000         ; You may have to change them to reflect the actual wiri
                       ng you have chosen on your board
   16 00000000 00000009 
                       SEGABIT equ              9           ; this means that s
                                                            egment a is wired t
                                                            o P0.9
   17 00000000 0000000A 
                       SEGBBIT equ              10          ; this means that s
                                                            egment b is wired t
                                                            o P0.10
   18 00000000 00000016 
                       SEGCBIT equ              22          ;11;12
   19 00000000 0000000C 
                       SEGDBIT equ              12          ;13
   20 00000000 0000000D 
                       SEGEBIT equ              13          ;16
   21 00000000 00000017 
                       SEGFBIT equ              23          ;14;8
   22 00000000 0000000F 
                       SEGGBIT equ              15          ;19
   23 00000000 00000010 
                       SEGDPBIT
                               equ              16          ;20 
   24 00000000         
   25 00000000         
   26 00000000 E59F1080        ldr              r1,=IO0DIR
   27 00000004         ;select the pins that are driving the segments & d.p.
   28 00000004 E59F2080        ldr              r2,=(1<<SEGABIT)+(1<<SEGBBIT)+(
1<<SEGCBIT)+(1<<SEGDBIT)+(1<<SEGEBIT)+(1<<SEGFBIT)+(1<<SEGGBIT)+(1<<SEGDPBIT)
   29 00000008 E5812000        str              r2,[r1]     ;make them outputs
   30 0000000C         
   31 0000000C E59F107C        ldr              r1,=IO0SET
   32 00000010 E59F207C        ldr              r2,=IO0CLR
   33 00000014         ; r1 points to the SET register
   34 00000014         ; r2 points to the CLEAR register
   35 00000014 E59F507C        ldr              r5,=lut     ; point to the look
                                                            -up table
   36 00000018 E3A0000F 
                       wloop   mov              r0,#15      ; start with 0
   37 0000001C         



ARM Macro Assembler    Page 2 


   38 0000001C E7953100 
                       floop   ldr              r3,[r5,r0,lsl #2] ; pick up the
                                                             7-seg code for thi
                                                            s number
   39 00000020 E5813000        str              r3,[r1]     ; turn segments on
   40 00000024         
   41 00000024         ;delay for about a half second
   42 00000024 E59F4070        ldr              r4,=10000000
   43 00000028 E2544001 
                       dloop   subs             r4,r4,#1
   44 0000002C 1AFFFFFD        bne              dloop
   45 00000030         
   46 00000030 E5823000        str              r3,[r2]     ; turn segments off
                                                            
   47 00000034         
   48 00000034 E2400001        sub              r0,#1
   49 00000038 E3700001        cmp              r0,#-1      ; only doing up as 
                                                            far as 3 (so 4 is t
                                                            oo far...)s
   50 0000003C 1AFFFFF6        bne              floop
   51 00000040         
   52 00000040 EAFFFFF4        b                wloop
   53 00000044         
   54 00000044 EAFFFFFE 
                       stop    B                stop        ; never reached
   55 00000048         
   56 00000048         
   57 00000048 00C03600 
                       lut     DCD              (1<<SEGABIT)+(1<<SEGBBIT)+(1<<S
EGCBIT)+(1<<SEGDBIT)+(1<<SEGEBIT)+(1<<SEGFBIT) 
                                                            ; '0'
   58 0000004C 00400400        DCD              (1<<SEGBBIT)+(1<<SEGCBIT) ; '1'
                                                            
   59 00000050 0000B600        DCD              (1<<SEGABIT)+(1<<SEGBBIT)+(1<<S
EGDBIT)+(1<<SEGEBIT)+(1<<SEGGBIT) 
                                                            ; '2'
   60 00000054 00409600        DCD              (1<<SEGABIT)+(1<<SEGBBIT)+(1<<S
EGCBIT)+(1<<SEGDBIT)+(1<<SEGGBIT) 
                                                            ; '3'
   61 00000058         
   62 00000058 00C08400        DCD              (1<<SEGBBIT)+(1<<SEGCBIT)+(1<<S
EGFBIT)+(1<<SEGGBIT) 
                                                            ; 4
   63 0000005C 00C09200        DCD              (1<<SEGABIT)+(1<<SEGCBIT)+(1<<S
EGDBIT)+(1<<SEGFBIT)+(1<<SEGGBIT) 
                                                            ; 5
   64 00000060 00C0B200        DCD              (1<<SEGABIT)+(1<<SEGCBIT)+(1<<S
EGDBIT)+(1<<SEGEBIT)+(1<<SEGFBIT)+(1<<SEGGBIT) 
                                                            ; 6
   65 00000064 00400600        DCD              (1<<SEGABIT)+(1<<SEGBBIT)+(1<<S
EGCBIT) 
                                                            ; 7
   66 00000068 00C0B600        DCD              (1<<SEGABIT)+(1<<SEGBBIT)+(1<<S
EGCBIT)+(1<<SEGDBIT)+(1<<SEGEBIT)+(1<<SEGFBIT)+(1<<SEGGBIT) 
                                                            ; 8
   67 0000006C 00C08600        DCD              (1<<SEGABIT)+(1<<SEGBBIT)+(1<<S
EGCBIT)+(1<<SEGFBIT)+(1<<SEGGBIT) 
                                                            ; 9
   68 00000070 00C1A600        DCD              (1<<SEGABIT)+(1<<SEGBBIT)+(1<<S



ARM Macro Assembler    Page 3 


EGCBIT)+(1<<SEGEBIT)+(1<<SEGFBIT)+(1<<SEGGBIT)+(1<<SEGDPBIT) 
                                                            ; A
   69 00000074 00C1B600        DCD              (1<<SEGABIT)+(1<<SEGBBIT)+(1<<S
EGCBIT)+(1<<SEGDBIT)+(1<<SEGEBIT)+(1<<SEGFBIT)+(1<<SEGGBIT)+(1<<SEGDPBIT) 
                                                            ; B
   70 00000078 00813200        DCD              (1<<SEGABIT)+(1<<SEGDBIT)+(1<<S
EGEBIT)+(1<<SEGFBIT)+(1<<SEGDPBIT) 
                                                            ; C
   71 0000007C 00C13600        DCD              (1<<SEGABIT)+(1<<SEGBBIT)+(1<<S
EGCBIT)+(1<<SEGDBIT)+(1<<SEGEBIT)+(1<<SEGFBIT)+(1<<SEGDPBIT) 
                                                            ; D
   72 00000080 0081B200        DCD              (1<<SEGABIT)+(1<<SEGDBIT)+(1<<S
EGEBIT)+(1<<SEGFBIT)+(1<<SEGGBIT)+(1<<SEGDPBIT) 
                                                            ; E
   73 00000084 0081A200        DCD              (1<<SEGABIT)+(1<<SEGEBIT)+(1<<S
EGFBIT)+(1<<SEGGBIT)+(1<<SEGDPBIT) 
                                                            ; F
   74 00000088         
   75 00000088         ;etc for all 10 (or all 16) digits
   76 00000088                 END
              E0028008 
              00C1B600 
              E0028004 
              E002800C 
              00000000 
              00989680 
Command Line: --debug --xref --apcs=interwork --depend=App.d -oApp.o -IC:\Keil\
ARM\INC -IC:\Keil\ARM\INC\Philips --predefine="__EVAL SETA 1" --predefine="__MI
CROLIB SETA 1" --list=.\Listings\App.lst App.s



ARM Macro Assembler    Page 1 Alphabetic symbol ordering
Relocatable symbols

AsmTemplate 00000000

Symbol: AsmTemplate
   Definitions
      At line 1 in file App.s
   Uses
      None
Comment: AsmTemplate unused
dloop 00000028

Symbol: dloop
   Definitions
      At line 43 in file App.s
   Uses
      At line 44 in file App.s
Comment: dloop used once
floop 0000001C

Symbol: floop
   Definitions
      At line 38 in file App.s
   Uses
      At line 50 in file App.s
Comment: floop used once
lut 00000048

Symbol: lut
   Definitions
      At line 57 in file App.s
   Uses
      At line 35 in file App.s
Comment: lut used once
start 00000000

Symbol: start
   Definitions
      At line 8 in file App.s
   Uses
      At line 7 in file App.s
Comment: start used once
stop 00000044

Symbol: stop
   Definitions
      At line 54 in file App.s
   Uses
      At line 54 in file App.s
Comment: stop used once
wloop 00000018

Symbol: wloop
   Definitions
      At line 36 in file App.s
   Uses
      At line 52 in file App.s
Comment: wloop used once
7 symbols



ARM Macro Assembler    Page 1 Alphabetic symbol ordering
Absolute symbols

IO0CLR E002800C

Symbol: IO0CLR
   Definitions
      At line 12 in file App.s
   Uses
      At line 32 in file App.s
Comment: IO0CLR used once
IO0DIR E0028008

Symbol: IO0DIR
   Definitions
      At line 10 in file App.s
   Uses
      At line 26 in file App.s
Comment: IO0DIR used once
IO0SET E0028004

Symbol: IO0SET
   Definitions
      At line 11 in file App.s
   Uses
      At line 31 in file App.s
Comment: IO0SET used once
SEGABIT 00000009

Symbol: SEGABIT
   Definitions
      At line 16 in file App.s
   Uses
      At line 28 in file App.s
      At line 57 in file App.s
      At line 59 in file App.s
      At line 60 in file App.s
      At line 63 in file App.s
      At line 64 in file App.s
      At line 65 in file App.s
      At line 66 in file App.s
      At line 67 in file App.s
      At line 68 in file App.s
      At line 69 in file App.s
      At line 70 in file App.s
      At line 71 in file App.s
      At line 72 in file App.s
      At line 73 in file App.s

SEGBBIT 0000000A

Symbol: SEGBBIT
   Definitions
      At line 17 in file App.s
   Uses
      At line 28 in file App.s
      At line 57 in file App.s
      At line 58 in file App.s
      At line 59 in file App.s
      At line 60 in file App.s
      At line 62 in file App.s
      At line 65 in file App.s



ARM Macro Assembler    Page 2 Alphabetic symbol ordering
Absolute symbols

      At line 66 in file App.s
      At line 67 in file App.s
      At line 68 in file App.s
      At line 69 in file App.s
      At line 71 in file App.s

SEGCBIT 00000016

Symbol: SEGCBIT
   Definitions
      At line 18 in file App.s
   Uses
      At line 28 in file App.s
      At line 57 in file App.s
      At line 58 in file App.s
      At line 60 in file App.s
      At line 62 in file App.s
      At line 63 in file App.s
      At line 64 in file App.s
      At line 65 in file App.s
      At line 66 in file App.s
      At line 67 in file App.s
      At line 68 in file App.s
      At line 69 in file App.s
      At line 71 in file App.s

SEGDBIT 0000000C

Symbol: SEGDBIT
   Definitions
      At line 19 in file App.s
   Uses
      At line 28 in file App.s
      At line 57 in file App.s
      At line 59 in file App.s
      At line 60 in file App.s
      At line 63 in file App.s
      At line 64 in file App.s
      At line 66 in file App.s
      At line 69 in file App.s
      At line 70 in file App.s
      At line 71 in file App.s
      At line 72 in file App.s

SEGDPBIT 00000010

Symbol: SEGDPBIT
   Definitions
      At line 23 in file App.s
   Uses
      At line 28 in file App.s
      At line 68 in file App.s
      At line 69 in file App.s
      At line 70 in file App.s
      At line 71 in file App.s
      At line 72 in file App.s
      At line 73 in file App.s

SEGEBIT 0000000D



ARM Macro Assembler    Page 3 Alphabetic symbol ordering
Absolute symbols


Symbol: SEGEBIT
   Definitions
      At line 20 in file App.s
   Uses
      At line 28 in file App.s
      At line 57 in file App.s
      At line 59 in file App.s
      At line 64 in file App.s
      At line 66 in file App.s
      At line 68 in file App.s
      At line 69 in file App.s
      At line 70 in file App.s
      At line 71 in file App.s
      At line 72 in file App.s
      At line 73 in file App.s

SEGFBIT 00000017

Symbol: SEGFBIT
   Definitions
      At line 21 in file App.s
   Uses
      At line 28 in file App.s
      At line 57 in file App.s
      At line 62 in file App.s
      At line 63 in file App.s
      At line 64 in file App.s
      At line 66 in file App.s
      At line 67 in file App.s
      At line 68 in file App.s
      At line 69 in file App.s
      At line 70 in file App.s
      At line 71 in file App.s
      At line 72 in file App.s
      At line 73 in file App.s

SEGGBIT 0000000F

Symbol: SEGGBIT
   Definitions
      At line 22 in file App.s
   Uses
      At line 28 in file App.s
      At line 59 in file App.s
      At line 60 in file App.s
      At line 62 in file App.s
      At line 63 in file App.s
      At line 64 in file App.s
      At line 66 in file App.s
      At line 67 in file App.s
      At line 68 in file App.s
      At line 69 in file App.s
      At line 72 in file App.s
      At line 73 in file App.s

11 symbols



ARM Macro Assembler    Page 1 Alphabetic symbol ordering
External symbols

main 00000000

Symbol: main
   Definitions
      At line 2 in file App.s
   Uses
      None
Comment: main unused
1 symbol
347 symbols in table
