\relax 
\@writefile{toc}{\contentsline {section}{\numberline {0.1}The system}{1}}
\@writefile{toc}{\contentsline {subsection}{\numberline {0.1.1}Bit string library}{1}}
\@writefile{toc}{\contentsline {subsubsection}{String to bytes}{1}}
\@writefile{toc}{\contentsline {subsubsection}{byte to String}{1}}
\@writefile{toc}{\contentsline {subsection}{\numberline {0.1.2}CRC library}{1}}
\@writefile{toc}{\contentsline {subsubsection}{Limitations}{1}}
\@writefile{toc}{\contentsline {subsection}{\numberline {0.1.3}Sender}{1}}
\@writefile{toc}{\contentsline {subsubsection}{Safety}{1}}
\@writefile{toc}{\contentsline {subsection}{\numberline {0.1.4}Receiver}{1}}
\@writefile{toc}{\contentsline {section}{\numberline {0.2}Example run}{2}}
\@writefile{toc}{\contentsline {subsection}{\numberline {0.2.1}Sender}{2}}
\@writefile{toc}{\contentsline {subsection}{\numberline {0.2.2}Receiver}{2}}
