\relax 
\@writefile{toc}{\contentsline {section}{\numberline {0.1}Introduction}{1}}
\@writefile{toc}{\contentsline {section}{\numberline {0.2}Algorithm}{1}}
\@writefile{toc}{\contentsline {subsection}{\numberline {0.2.1}State}{1}}
\@writefile{toc}{\contentsline {subsection}{\numberline {0.2.2}Initialization}{1}}
\@writefile{toc}{\contentsline {subsection}{\numberline {0.2.3}Update}{1}}
\@writefile{toc}{\contentsline {subsection}{\numberline {0.2.4}Visualization}{1}}
\@writefile{toc}{\contentsline {subsection}{\numberline {0.2.5}Delay}{1}}
\@writefile{toc}{\contentsline {section}{\numberline {0.3}Example run}{2}}
\@writefile{toc}{\contentsline {section}{\numberline {0.4}Source code}{3}}
