vhdl isim_temp "array_types.vhd"
vhdl isim_temp "register_16bit.vhd"
vhdl isim_temp "mux8_16bit.vhd"
vhdl isim_temp "mux2_16bit.vhd"
vhdl isim_temp "decoder_3to8.vhd"
vhdl isim_temp "register_file.vhd"
vhdl isim_temp "register_file_tb.vhd"
