vhdl work "ipcore_dir/timer_preset.vhd"
vhdl work "wtut_vhd/time_cnt.vhd"
vhdl work "wtut_vhd/statmach.vhd"
vhdl work "wtut_vhd/lcd_control.vhd"
vhdl work "wtut_vhd/clk_div_262k.vhd"
vhdl work "dcm1.vhd"
vhdl work "debounce.vhd"
vhdl work "wtut_vhd/stopwatch.vhd"
