\relax 
\@writefile{toc}{\contentsline {section}{\numberline {0.1}The system}{1}}
\@writefile{toc}{\contentsline {subsection}{\numberline {0.1.1}The listener}{1}}
\@writefile{toc}{\contentsline {subsubsection}{Advantages}{1}}
\@writefile{toc}{\contentsline {subsubsection}{Limitations}{1}}
\@writefile{toc}{\contentsline {subsection}{\numberline {0.1.2}Sender}{1}}
\@writefile{toc}{\contentsline {subsubsection}{Advantages}{1}}
\@writefile{toc}{\contentsline {subsubsection}{Drawbacks}{1}}
\@writefile{toc}{\contentsline {subsection}{\numberline {0.1.3}Receiver}{2}}
\@writefile{toc}{\contentsline {subsubsection}{Advantages}{2}}
\@writefile{toc}{\contentsline {subsubsection}{Disadvantages}{2}}
\@writefile{toc}{\contentsline {section}{\numberline {0.2}Example run}{3}}
\@writefile{toc}{\contentsline {subsection}{\numberline {0.2.1}Sender}{3}}
\@writefile{toc}{\contentsline {subsection}{\numberline {0.2.2}Receiver}{3}}
